59 301 128
47 499 144
33 814 171
53 214 125
79 300 128
40 304 128
8 628 144
90 575 144
100 485 144
92 944 179
56 130 122
97 799 171
58 784 171
28 761 171
100 656 145
70 429 144
45 855 171
12 439 144
83 376 144
6 79 116
57 891 179
54 485 144
10 762 171
78 792 171
59 732 171
43 396 144
100 869 171
13 951 179
49 547 144
10 447 144
23 641 144
19 897 179
53 481 144
7 55 113
16 51 112
82 600 144
96 583 144
12 681 145
10 908 179
82 12 116
65 31 113
61 441 144
47 886 179
45 563 144
41 670 145
26 38 112
59 680 145
98 625 144
20 318 131
82 553 144
36 890 179
13 654 145
75 610 144
59 166 122
43 103 119
75 351 144
10 67 113
66 481 144
97 995 179
13 111 119
64 501 144
90 657 145
66 942 179
13 795 171
54 567 144
51 548 144
56 222 125
77 73 116
35 166 122
37 323 131
81954 372167 443
77785 22922 351
2974 17568 276
57805 276877 443
54026 337120 443
36168 133500 354
90675 23829 351
90839 204872 383
66867 255934 443
86329 125182 354
72542 213970 383
58889 182662 383
5113 360370 443
30259 308022 443
27977 173530 383
58274 180850 383
33057 316396 443
14453 227614 386
10148 199382 383
78870 230844 443
23847 286830 443
6892 209968 383
59444 182857 383
48996 63971 340
22459 195346 383
4448 249390 443
92307 284147 443
30521 176782 383
33660 117703 354
37004 10936 324
80811 101797 341
72859 77814 351
95079 88544 333
45640 188500 383
63861 166153 383
73475 314848 443
63868 304148 443
20922 238282 443
94049 315908 443
53451 348638 443
41957 225898 386
49490 75249 340
35513 311214 443
62705 306297 443
77696 252358 443
66312 226397 386
51833 344885 443
44609 125844 354
37360 36938 262
14575 222501 386
87767 163983 383
61754 312942 443
59255 293189 443
49961 119912 354
70933 250661 443
1641 43813 324
29294 285955 443
46921 93197 351
28862 90556 351
890 262574 443
12656 164350 383
67029 71695 325
88552 395082 443
15793 363648 443
2722 396284 443
63521 89135 351
570 307240 443
88591 356440 443
15664 295564 443
4849 56796 340
648911 468702 509
324882 257390 407
723079 323176 509
221468 90744 386
316038 262675 407
246973 489284 449
495741 470112 426
317613 56945 443
804403 743035 468
873600 150570 525
352556 109844 443
73478 14782 340
115478 219616 386
96207 482030 449
13689 148329 375
940244 359985 525
961515 989344 458
913422 227971 525
938608 870374 476
772863 436362 509
255122 872893 525
875013 262865 525
606021 651081 509
256430 817128 509
813291 512609 509
158339 381670 443
391072 480407 449
743438 225852 509
445892 939480 525
763580 717340 424
634657 310690 509
620884 671632 509
512888 75723 470
294333 553535 470
613757 711922 509
540284 689861 509
536673 791837 509
425722 483986 444
464888 140017 449
494825 204279 449
872050 293459 525
415595 273234 449
564213 950315 525
9179 91145 351
147965 163278 383
36868 127774 354
861107 740090 525
572426 544328 452
340099 971215 525
765817 320087 509
339340 386496 441
109441 229118 386
546639 629531 509
299184 18553 443
935124 53424 525
174036 636810 509
471556 357624 449
316830 249302 407
560906 404949 470
695836 97930 509
388108 163857 443
964885 917659 507
74849 764531 509
407288 876402 525
870553 380640 525
101908 866160 525
499499 511270 426
131352 117637 344
408829 438743 449
993332 704234 525
