9348 11023 268
485 987 179
123 5393 238
243 8432 262
938 2239 183
1280 2480 209
9831 1104 262
930 1850 182
9022 2031 262
8409 9823 260
9473 2750 262
132 8490 262
9378 5281 262
8301 4001 262
8402 3739 262
9848 1435 262
1567 4851 238
7583 12576 268
9301 16730 276
12349 59338 340
75028 91284 351
822 28101 308
3810 85021 351
4018 83010 351
80301 83281 320
93018 11083 351
14 898 179
384 1274 182
9845 11843 268
9843 43254 324
348 3258 217
9852 12358 268
85431 98520 333
8524 124559 354
98435 23589 351
825738 235878 509
12385 358929 443
285798 25802 443
9300 35893 324
85782 850230 525
84503 223585 386
203580 12489 383
85428 235876 443
23858 23587 251
82789 23489 351
1224 3523 217
235 984 179
5483 23580 282
2358 9874 262
2348 23568 282
9573 23582 282
9845 23560 282
985 237 179
840 235 171
2987 2358 217
8732 235687 443
982435 2358 525
2386 23786 282
9845 2359 262
855 346 171
9876 2367 262
987 2386 183
98732 23578 351
127859 34678 354
874582 12000 525
235889 239587 350
98783 239578 443
987223 23598 525
87892 23587 351
23802 235987 443
98337 23825 351
98383 89302 333
123830 235806 443
98472 239835 443
823578 235892 509
982358 23589 525
987383 234878 525
75930 23589 340
84827 237502 443
987235 23857 525
98237 238590 443
982738 23589 525
283850 273530 389
93283 258982 443
18305 12858 279
8420 18390 279
983 1855 182
563 34678 311
4638 1248 238
957 28392 308
8402 2395 262
83820 58302 351
84820 592485 470
25950 23578 264
1275 35789 324
235878 23859 443
7420 27910 308
87592 27517 351
72 3719 238
7392 3710 262
8340 238230 443
74391 53502 335
7492 547322 470
8273 2358 262
93273 273920 443
47195 473830 449
328201 369 443
77191 448325 449
73920 4738 340
739201 711194 424
749277 901758 525
719573 259273 509
738273 740488 424
8492 27495 308
749283 75930 509
928 5824 238
32 235 128
947 235 179
7492 2938 262
98745 23589 351
987 2983 217
8375 23 262
8723 23589 282
98734 234789 443
9276 2395 262
12 355 144
9873 2357 262
982375 27839 525
9823 97124 351
235 578 144
8722 78329 351
98273 2780 351
9873 782 262
9723 235987 443
98365 57894 351
235 234789 443
23987 27598 308
7484 284920 443
8392 7392 252
8492 4820 262
84925 28302 351
9324 234789 443
349586 23748 443
28376 237589 443
8273 237489 443
7892 374 262
4563 34578 311
43571 34857 324
2154 5483 238
9374 3759 262
8492 2405 262
883 25950 282
8302 8502 234
8405 28459 308
92838 28932 351
984375 54930 525
98435 58430 351
723495 28459 509
27583 283582 443
834092 237850 509
29875 238235 443
823759 238952 509
8325 589032 470
893982 59802 525
739258 523234 509
5892 28935 308
9238 589 262
235 2235 183
235 2364 183
235 23590 282
235 23084 279
9835 2359 262
9832 23856 282
2382 325828 443
325801 23829 443
983 2359 183
9835 49857 324
23578 235801 443
293587 53281 443
923587 12935 525
29583 12936 308
23589 925837 525
54235 235780 443
98735 273592 443
93257 23578 351
92358 471498 449
857 2358 183
28357 235789 443
239578 235987 350
28357 253892 443
25381 58923 340
925783 1235 525
12587 12598 232
12358 12589 263
19258 12583 279
235 24068 282
1235 2516 209
1256 34608 311
12368 139486 354
12350 2682 268
