675 100940 351
1521 399671 443
360 473518 449
1313 546391 470
3616 491256 449
4399 241941 443
1014 158696 383
2569 879854 525
6448 461162 449
2588 933705 525
6259 836170 509
2763 992077 525
1466 698933 509
6760 233180 443
13650 127723 354
754 494561 449
6740 645010 509
7419 856999 525
10088 493131 449
19508 306278 443
10882 650204 509
16871 643916 509
19364 326022 443
2865 187705 383
3088 654702 509
2746 228671 386
7496 42154 324
18162 120809 354
6212 992907 525
8810 929446 525
5031 82868 351
28524 840919 525
19487 255160 443
28136 507427 449
18847 700538 509
2301 490114 449
35986 630617 509
8176 763207 509
3022 360613 443
1131 554118 470
8299 551752 470
31429 964307 525
19351 469871 449
40842 982783 525
15087 859507 525
7431 563886 470
18748 382949 443
22292 859891 525
39079 782412 509
12590 61605 340
49186 192328 383
24976 345895 443
31525 91113 351
45853 627919 509
54802 463285 449
3309 614702 470
51702 857475 525
16178 748797 509
25620 363342 443
24261 395264 443
57887 246501 443
33426 623272 470
787 765613 509
28957 428417 449
6345 225282 386
46783 869963 525
19573 269310 443
24161 945919 525
64486 977716 525
45619 134348 354
68058 399958 443
25770 365171 443
1195 371045 443
72036 291187 443
23538 717137 509
69113 778207 509
24350 516493 470
39184 955669 525
1753 870297 525
14011 835320 509
47672 554017 470
32336 398397 443
46693 64915 340
61700 995033 525
38466 648408 509
58998 538679 470
41643 991562 525
6550 353265 443
16713 347547 443
76288 317032 443
2527 679910 509
60313 110831 354
15947 241770 443
82756 347522 443
10186 607491 470
22818 167537 383
33192 560090 470
33892 562215 470
30732 588561 470
70158 655313 509
4284 972842 525
81593 97784 333
3817 826813 509
17957 237631 443
61577 671349 509
80410 469429 449
56821 102318 351
102425 403906 443
18063 303146 443
63012 578644 470
109122 136536 349
56198 420547 449
101190 618720 470
37360 658386 509
414 299081 443
104273 817620 509
25808 266619 443
15346 488361 449
82496 511773 449
60299 885520 525
15481 899182 525
62581 194014 383
46778 600065 470
10765 919347 525
18448 407884 443
10162 669654 509
105533 365292 443
23323 75895 340
121445 76073 354
37976 496966 449
100841 493682 449
48515 932213 525
95995 828572 509
92962 889380 525
81220 713300 509
122045 837454 509
21237 143095 375
73878 438887 449
84824 818161 509
77290 362932 443
62834 283779 443
125362 263560 443
112879 973097 525
99734 346099 443
52746 63695 335
50607 304110 443
141552 425823 449
14231 371451 443
83488 227381 386
134912 928103 525
108401 739289 509
96621 282302 443
32976 394133 443
107377 824299 509
147380 96656 375
105922 480541 449
43975 263906 443
154393 571938 470
108316 469804 449
28073 400853 443
67096 767170 509
12826 909498 525
21807 39772 324
49025 209520 383
94027 191198 383
77534 718383 509
68939 912797 525
122961 456129 449
136886 171703 383
46825 255109 443
36962 22244 324
53611 914478 525
136230 632763 509
170299 341649 443
15072 292316 443
95370 260619 443
148979 349290 443
38925 847393 525
157737 61914 383
11125 647874 509
72769 817619 509
88784 191521 383
54286 397737 443
83612 8865 351
113507 99449 354
76579 860955 525
173182 725111 509
3768 147977 375
44784 391479 443
53276 670211 509
109590 337764 443
181612 643099 509
87080 128576 354
41755 57442 340
171420 708743 509
133640 371914 443
44414 216224 383
112844 175637 383
129245 875268 525
11650 794727 509
190285 749991 509
104275 7042 351
92060 575847 470
50493 138738 354
5427 613966 470
90111 157070 383
37676 247259 443
80515 590736 470
32003 525949 470
127401 70147 354
77466 609557 470
116620 439739 449
29948 241334 443
184372 710801 509
111150 271191 443
69879 630466 509
139253 444594 449
100892 61612 351
48640 769642 509
184238 526469 470
93731 421005 449
204057 818292 509
81868 927414 525
198660 423261 449
204150 266764 443
99675 877297 525
29536 544699 470
63607 616345 470
15442 915871 525
8444 513238 470
136659 677788 509
102704 534189 470
195281 977939 525
134963 748240 509
161158 83282 383
234495 15254 443
24659 945837 525
62237 592835 470
48468 336652 443
213153 499661 449
31255 808365 509
162964 630824 509
75314 256458 443
163740 952959 525
26913 516463 470
96378 303118 443
89641 840872 525
92639 875182 525
86924 42157 351
220524 198003 386
