349208 378951 423
5297 863042 525
645438 591599 509
674144 699076 442
60303 117835 354
827624 568723 509
355858 733216 509
492134 661081 509
687829 705221 504
126042 938255 525
623686 178193 470
190022 194441 347
408923 936619 525
594921 484548 470
523038 678906 509
708999 922810 525
698535 997088 525
940171 780242 525
671191 816107 504
934273 998657 507
889798 974621 507
266505 98993 443
461215 774318 509
846440 301811 525
826229 457916 509
968414 305570 525
70425 600658 470
444345 449906 369
892926 322584 525
332821 913859 525
643399 836081 504
332582 378834 441
40677 869348 525
325449 371838 441
942292 908549 507
193068 685042 509
220153 248536 443
228255 585260 470
286503 440536 449
57422 374252 443
129617 622621 470
319213 496665 449
98126 392766 443
694754 36363 509
699893 679185 442
144486 309241 443
533117 302359 470
878982 332997 525
348540 717663 509
782306 550599 509
947049 477719 525
921884 894451 476
917093 974655 507
528233 141873 470
614339 501182 470
19133 661138 509
706801 482610 509
537135 256285 470
365535 379266 423
260193 399227 441
66479 430958 449
968763 798054 525
814789 775114 468
685043 60388 509
75255 799352 509
994231 676573 525
648948 30265 509
921786 696430 525
776701 963141 525
441090 248885 449
249690 628208 509
184610 364781 443
576710 519062 452
690762 729194 504
832631 356258 509
899617 230217 525
997641 355021 525
998738 571748 525
554309 229465 470
443269 737555 509
168979 410451 449
385160 794373 509
111404 865362 525
633972 937827 525
275817 261155 407
916790 29567 525
909918 409471 525
122112 229635 386
620090 765958 509
489439 47857 449
873453 399622 525
54671 27927 340
38770 707952 509
106029 793117 509
465382 260673 449
341676 24510 443
572314 473600 470
990227 527626 525
14917 811041 509
961558 406430 525
693059 524904 509
729697 9955 509
124495 37984 354
935441 780194 525
439884 170535 449
972162 422794 525
563518 883974 525
270211 175558 443
135576 50505 354
20733 511663 449
826548 404528 509
921025 598944 525
218428 363372 443
738921 587395 509
616939 221874 470
513289 803295 509
206415 586193 470
802944 100493 509
559989 649721 509
925395 808319 525
65888 557155 470
347823 202926 443
888353 935844 476
473009 339278 449
571152 799276 509
509440 198715 449
218411 827217 509
690404 237408 509
209850 752149 509
19734 269587 443
800341 987856 525
589351 925733 525
756303 364156 509
906666 382603 525
780857 553722 509
756561 791531 468
940289 916538 507
366424 504215 449
862925 758061 525
198392 18396 383
381750 90873 443
997675 710937 525
265372 528975 470
69229 377855 443
699258 199034 509
244855 251719 350
120658 127722 336
817021 868753 525
783039 198563 509
817277 191062 509
791557 163156 509
702641 283719 509
301725 189330 443
517975 392749 470
14164 674446 509
717390 493350 509
137751 491966 449
378310 215766 443
77466 642942 509
413818 86152 449
574472 823180 509
256765 302423 407
583988 684267 509
917097 204171 525
789911 825936 468
471681 328725 449
124857 930512 525
760941 640037 504
942341 119828 525
818743 845662 525
810868 869473 525
705285 783113 468
936244 623386 525
879001 759266 525
858827 37544 525
933918 429277 525
780172 544858 509
154274 628783 509
365917 417745 449
801183 906886 525
472548 296785 449
785683 197560 509
216793 134713 386
361218 544985 470
742458 520807 509
81745 513232 470
666131 507305 509
609331 385204 470
822824 592572 509
58541 130669 354
349410 24060 443
945357 108061 525
682173 315713 509
43199 469022 449
481819 277923 449
830257 668278 504
985504 101759 525
210800 102395 383
247243 380161 441
784008 578182 509
75760 759974 509
397473 197832 443
912682 261331 525
441712 221746 449
933383 401146 525
689026 94455 509
557152 164347 470
495744 922062 525
621851 93193 470
777573 209408 509
903634 892996 401
858334 157151 525
636802 528370 509
761344 878308 525
239955 389888 441
404269 234311 441
921114 827587 525
806319 413706 509
178225 370824 443
660476 454133 509
873156 94410 525
483266 595576 470
893635 656799 525
577200 438406 470
877774 695381 525
282063 555423 470
325163 820599 509
722185 25942 509
328163 388750 441
847914 26899 525
129949 991808 525
465149 349920 449
595410 159613 470
380334 157219 443
631522 412745 509
361627 408439 436
929096 50097 525
204616 183842 360
172653 393087 443
382270 987015 525
726186 291726 509
535038 744143 509
467905 680859 509
118285 979868 525
714257 409226 509
725904 375947 509
489104 285306 449
854129 25747 525
227079 464135 449
711329 172725 509
893857 415448 525
